%YAML 1.1
%TAG !u! tag:unity3d.com,2011:
--- !u!1 &3976648674692374397
GameObject:
  m_ObjectHideFlags: 0
  m_CorrespondingSourceObject: {fileID: 0}
  m_PrefabInstance: {fileID: 0}
  m_PrefabAsset: {fileID: 0}
  serializedVersion: 6
  m_Component:
  - component: {fileID: 3976648674692374387}
  - component: {fileID: 3976648674692374396}
  m_Layer: 0
  m_Name: Ground Parallax
  m_TagString: Untagged
  m_Icon: {fileID: 0}
  m_NavMeshLayer: 0
  m_StaticEditorFlags: 0
  m_IsActive: 1
--- !u!4 &3976648674692374387
Transform:
  m_ObjectHideFlags: 0
  m_CorrespondingSourceObject: {fileID: 0}
  m_PrefabInstance: {fileID: 0}
  m_PrefabAsset: {fileID: 0}
  m_GameObject: {fileID: 3976648674692374397}
  m_LocalRotation: {x: 0, y: 0, z: 0, w: 1}
  m_LocalPosition: {x: 0, y: 0, z: 0}
  m_LocalScale: {x: 1, y: 1, z: 1}
  m_Children:
  - {fileID: 3976648676532520159}
  m_Father: {fileID: 0}
  m_RootOrder: 0
  m_LocalEulerAnglesHint: {x: 0, y: 0, z: 0}
--- !u!114 &3976648674692374396
MonoBehaviour:
  m_ObjectHideFlags: 0
  m_CorrespondingSourceObject: {fileID: 0}
  m_PrefabInstance: {fileID: 0}
  m_PrefabAsset: {fileID: 0}
  m_GameObject: {fileID: 3976648674692374397}
  m_Enabled: 1
  m_EditorHideFlags: 0
  m_Script: {fileID: 11500000, guid: cb73a2971c4919a4e9c0cc75bed2ae51, type: 3}
  m_Name: 
  m_EditorClassIdentifier: 
  tileSprite: {fileID: 2400405674196389271, guid: 8e29ff0e7268a284fbb2243057fb9161,
    type: 3}
  initialScollSpeed: 3
  spawnRate: 2
  spawnOffsetX: 46.29
  yPosition: 0
  isGround: 1
--- !u!1001 &1612307190095366479
PrefabInstance:
  m_ObjectHideFlags: 0
  serializedVersion: 2
  m_Modification:
    m_TransformParent: {fileID: 3976648674692374387}
    m_Modifications:
    - target: {fileID: 2400405674196389264, guid: 8e29ff0e7268a284fbb2243057fb9161,
        type: 3}
      propertyPath: m_LocalPosition.x
      value: 0
      objectReference: {fileID: 0}
    - target: {fileID: 2400405674196389264, guid: 8e29ff0e7268a284fbb2243057fb9161,
        type: 3}
      propertyPath: m_LocalPosition.y
      value: 0
      objectReference: {fileID: 0}
    - target: {fileID: 2400405674196389264, guid: 8e29ff0e7268a284fbb2243057fb9161,
        type: 3}
      propertyPath: m_LocalPosition.z
      value: 0
      objectReference: {fileID: 0}
    - target: {fileID: 2400405674196389264, guid: 8e29ff0e7268a284fbb2243057fb9161,
        type: 3}
      propertyPath: m_LocalRotation.x
      value: -0
      objectReference: {fileID: 0}
    - target: {fileID: 2400405674196389264, guid: 8e29ff0e7268a284fbb2243057fb9161,
        type: 3}
      propertyPath: m_LocalRotation.y
      value: -0
      objectReference: {fileID: 0}
    - target: {fileID: 2400405674196389264, guid: 8e29ff0e7268a284fbb2243057fb9161,
        type: 3}
      propertyPath: m_LocalRotation.z
      value: -0
      objectReference: {fileID: 0}
    - target: {fileID: 2400405674196389264, guid: 8e29ff0e7268a284fbb2243057fb9161,
        type: 3}
      propertyPath: m_LocalRotation.w
      value: 1
      objectReference: {fileID: 0}
    - target: {fileID: 2400405674196389264, guid: 8e29ff0e7268a284fbb2243057fb9161,
        type: 3}
      propertyPath: m_RootOrder
      value: 0
      objectReference: {fileID: 0}
    - target: {fileID: 2400405674196389264, guid: 8e29ff0e7268a284fbb2243057fb9161,
        type: 3}
      propertyPath: m_LocalEulerAnglesHint.x
      value: 0
      objectReference: {fileID: 0}
    - target: {fileID: 2400405674196389264, guid: 8e29ff0e7268a284fbb2243057fb9161,
        type: 3}
      propertyPath: m_LocalEulerAnglesHint.y
      value: 0
      objectReference: {fileID: 0}
    - target: {fileID: 2400405674196389264, guid: 8e29ff0e7268a284fbb2243057fb9161,
        type: 3}
      propertyPath: m_LocalEulerAnglesHint.z
      value: 0
      objectReference: {fileID: 0}
    - target: {fileID: 2400405674196389271, guid: 8e29ff0e7268a284fbb2243057fb9161,
        type: 3}
      propertyPath: m_Name
      value: Ground
      objectReference: {fileID: 0}
    m_RemovedComponents: []
  m_SourcePrefab: {fileID: 100100000, guid: 8e29ff0e7268a284fbb2243057fb9161, type: 3}
--- !u!4 &3976648676532520159 stripped
Transform:
  m_CorrespondingSourceObject: {fileID: 2400405674196389264, guid: 8e29ff0e7268a284fbb2243057fb9161,
    type: 3}
  m_PrefabInstance: {fileID: 1612307190095366479}
  m_PrefabAsset: {fileID: 0}
